traceroute to google.com (216.58.197.142), 30 hops max, 60 byte packets
1  ec2-52-79-0-0.ap-northeast-2.compute.amazonaws.com (52.79.0.0)  18.135 ms ec2-52-79-0-6.ap-northeast-2.compute.amazonaws.com (52.79.0.6)  13.132 ms ec2-52-79-0-0.ap-northeast-2.compute.amazonaws.com (52.79.0.0)  18.179 ms
2  100.64.2.8 (100.64.2.8)  15.509 ms 100.64.3.8 (100.64.3.8)  14.766 ms 100.64.1.72 (100.64.1.72)  22.270 ms
3  100.64.0.195 (100.64.0.195)  21.078 ms 100.64.0.129 (100.64.0.129)  12.482 ms 100.64.3.197 (100.64.3.197)  22.256 ms
4  100.64.16.195 (100.64.16.195)  1.273 ms 100.64.17.131 (100.64.17.131)  1.270 ms 100.64.17.227 (100.64.17.227)  1.256 ms
5  54.239.122.7 (54.239.122.7)  1.675 ms 54.239.122.13 (54.239.122.13)  1.694 ms  1.919 ms
6  54.239.123.50 (54.239.123.50)  10.456 ms 54.239.123.6 (54.239.123.6)  8.701 ms 54.239.123.116 (54.239.123.116)  3.696 ms
7  54.239.122.239 (54.239.122.239)  0.926 ms 54.239.122.237 (54.239.122.237)  2.058 ms 54.239.123.115 (54.239.123.115)  2.050 ms
8  54.239.42.56 (54.239.42.56)  95.930 ms 54.239.42.54 (54.239.42.54)  30.456 ms  30.241 ms
9  52.95.30.37 (52.95.30.37)  36.623 ms 52.95.30.17 (52.95.30.17)  31.603 ms 52.95.30.23 (52.95.30.23)  41.802 ms
10  52.95.30.140 (52.95.30.140)  30.668 ms 52.95.30.148 (52.95.30.148)  30.797 ms 52.95.30.136 (52.95.30.136)  30.199 ms
11  52.95.216.117 (52.95.216.117)  35.891 ms  30.327 ms  30.050 ms
12  108.170.242.129 (108.170.242.129)  30.676 ms 108.170.242.97 (108.170.242.97)  30.644 ms  30.459 ms
13  216.239.62.25 (216.239.62.25)  30.511 ms 216.239.62.23 (216.239.62.23)  31.061 ms 216.239.62.25 (216.239.62.25)  30.539 ms
14  nrt12s01-in-f14.1e100.net (216.58.197.142)  31.857 ms  31.696 ms  31.901 ms
