traceroute to pantip.com (203.151.13.169), 30 hops max, 60 byte packets
1  ec2-175-41-192-146.ap-northeast-1.compute.amazonaws.com (175.41.192.146)  14.223 ms  14.211 ms ec2-175-41-192-144.ap-northeast-1.compute.amazonaws.com (175.41.192.144)  791.998 ms
2  100.64.3.72 (100.64.3.72)  14.385 ms 100.64.3.14 (100.64.3.14)  17.213 ms 100.64.1.202 (100.64.1.202)  15.535 ms
3  100.64.0.65 (100.64.0.65)  18.243 ms 100.64.2.197 (100.64.2.197)  16.658 ms 100.64.0.65 (100.64.0.65)  18.231 ms
4  100.64.17.151 (100.64.17.151)  0.292 ms 100.64.17.9 (100.64.17.9)  0.296 ms 100.64.17.197 (100.64.17.197)  0.438 ms
5  52.95.30.219 (52.95.30.219)  1.452 ms  1.448 ms 52.95.30.211 (52.95.30.211)  1.490 ms
6  52.95.30.125 (52.95.30.125)  8.579 ms 52.95.30.121 (52.95.30.121)  7.587 ms 52.95.30.129 (52.95.30.129)  11.582 ms
7  52.95.30.138 (52.95.30.138)  1.453 ms 52.95.30.144 (52.95.30.144)  3.422 ms 52.95.30.136 (52.95.30.136)  1.541 ms
8  218.100.6.44 (218.100.6.44)  73.153 ms  73.133 ms  73.156 ms
9  pos-0-1-3.sg-gw-02.net (180.180.255.237)  73.219 ms  73.230 ms  73.585 ms
10  ten-gi-0-4-0-0.sg-pop.net (180.180.255.157)  91.448 ms  89.843 ms  89.791 ms
11  ten-gi.net (180.180.249.121)  90.403 ms  90.397 ms  90.413 ms
12  us-la-microsoft.net (180.180.248.194)  108.430 ms  109.889 ms ten-gi-0-5-0-14.kkm-core-01.net (180.180.249.81)  104.760 ms
13  inet.thai.summit.tower.net (180.180.249.162)  105.139 ms  106.071 ms  106.078 ms
14  203.150.222.140 (203.150.222.140)  107.249 ms  107.673 ms  107.050 ms
15  203-151-2-6.inter.net.th (203.151.2.6)  118.156 ms * *
16  host169.pantip.com (203.151.13.169)  117.463 ms !X  117.455 ms !X  117.436 ms !X
